[
  {
    "id": 1,
    "code": "0123456789012",
    "name": "Coca cola",
    "imageUrl": "https://w0.pngwave.com/png/801/656/coca-cola-fizzy-drinks-diet-coke-beverage-can-coca-cola-png-clip-art.png"
  },
  {
    "id": 2,
    "code": "9780201379624",
    "name": "Snickers",
    "imageUrl": "https://amwine.ru/upload/iblock/6a0/6a08e068afcb289708eec67b4005a3f2.png"
  },
  {
    "id": 3,
    "code": "5901234123457",
    "name": "Milka chocolate",
    "imageUrl": "https://www.pngkit.com/png/full/54-547924_milka-chocolate-bar-300g-milka-oreo-fresh.png"},
  {
    "id": 4,
    "code": "2670786628781",
    "name": "Сок добрый",
    "imageUrl": "https://kafesakura.ru/d/dobryy_apelsin.png"
  }
]
